id,group_id:id,name,model_id:id,perm_create,perm_unlink,perm_write,perm_read
reporte_movimiento_stock.group_right_import₁,stock.group_stock_user,reporte_bodega_wizard.access,reporte_movimiento_stock.model_reporte_bodega_wizard,TRUE,TRUE,TRUE,TRUE
reporte_movimiento_stock.group_right_import₂,stock.group_stock_user,reporte_producto_wizard.access,reporte_movimiento_stock.model_reporte_producto_wizard,TRUE,TRUE,TRUE,TRUE
