id,group_id:id,name,model_id:id,perm_create,perm_unlink,perm_write,perm_read
altatec_import.group_right_import_1,stock.group_stock_user,altatec_waybill.container_stock_user,altatec_import.model_purchase_container,TRUE,TRUE,TRUE,TRUE
altatec_import.group_right_import_2,purchase.group_purchase_user,altatec_waybill.container_purchase_user,altatec_import.model_purchase_container,TRUE,TRUE,TRUE,TRUE
altatec_import.group_right_import_3,stock.group_stock_user,altatec_waybill.container_category_stock_user,altatec_import.model_purchase_container_category,TRUE,TRUE,TRUE,TRUE
altatec_import.group_right_import_4,purchase.group_purchase_user,altatec_waybill.container_category_purchase_user,altatec_import.model_purchase_container_category,TRUE,TRUE,TRUE,TRUE
